4x4_extend/syntolic.VCD
$date
	Mon Feb 24 14:35:03 2025
$end
$version
	Icarus Verilog
$end
$timescale
	1s
$end
$scope module tb $end
$var wire 1 ! read_data $end
$var wire 1 " done $end
$var wire 8 # data_in_B [7:0] $end
$var wire 8 $ data_in_A [7:0] $end
$var parameter 32 % K_SIZE $end
$var parameter 32 & M_SIZE $end
$var parameter 32 ' N_SIZE $end
$var reg 7 ( add_A_cnt [6:0] $end
$var reg 7 ) add_B_cnt [6:0] $end
$var reg 1 * clk $end
$var reg 1 + data_valid $end
$var reg 1 , read_reg $end
$var reg 1 - read_reg_1 $end
$var reg 1 . rst_n $end
$var reg 1 / start_compute $end
$var integer 32 0 file [31:0] $end
$var integer 32 1 i [31:0] $end
$var integer 32 2 j [31:0] $end
$scope module top $end
$var wire 1 * clk $end
$var wire 8 3 data_in_A [7:0] $end
$var wire 8 4 data_in_B [7:0] $end
$var wire 1 + data_valid $end
$var wire 16 5 output_00 [15:0] $end
$var wire 16 6 output_01 [15:0] $end
$var wire 16 7 output_02 [15:0] $end
$var wire 16 8 output_03 [15:0] $end
$var wire 16 9 output_10 [15:0] $end
$var wire 16 : output_11 [15:0] $end
$var wire 16 ; output_12 [15:0] $end
$var wire 16 < output_13 [15:0] $end
$var wire 16 = output_20 [15:0] $end
$var wire 16 > output_21 [15:0] $end
$var wire 16 ? output_22 [15:0] $end
$var wire 16 @ output_23 [15:0] $end
$var wire 16 A output_30 [15:0] $end
$var wire 16 B output_31 [15:0] $end
$var wire 16 C output_32 [15:0] $end
$var wire 16 D output_33 [15:0] $end
$var wire 1 . rst_n $end
$var wire 1 / start_compute $end
$var wire 1 E set_reg_path_7 $end
$var wire 1 F set_reg_path_6 $end
$var wire 1 G set_reg_path_5 $end
$var wire 1 H set_reg_path_4 $end
$var wire 1 I set_reg_path_3 $end
$var wire 1 J set_reg_path_2 $end
$var wire 1 K set_reg_path_1 $end
$var wire 1 ! read_data $end
$var wire 4 L in_valid_B [3:0] $end
$var wire 4 M in_valid_A [3:0] $end
$var wire 1 N in_valid_8 $end
$var wire 1 O in_valid_7 $end
$var wire 1 P in_valid_6 $end
$var wire 1 Q in_valid_5 $end
$var wire 1 R in_valid_4 $end
$var wire 1 S in_valid_3 $end
$var wire 1 T in_valid_2 $end
$var wire 1 U in_valid_1 $end
$var wire 1 " done $end
$var wire 8 V bf_to_pe_8 [7:0] $end
$var wire 8 W bf_to_pe_7 [7:0] $end
$var wire 8 X bf_to_pe_6 [7:0] $end
$var wire 8 Y bf_to_pe_5 [7:0] $end
$var wire 8 Z bf_to_pe_4 [7:0] $end
$var wire 8 [ bf_to_pe_3 [7:0] $end
$var wire 8 \ bf_to_pe_2 [7:0] $end
$var wire 8 ] bf_to_pe_1 [7:0] $end
$var wire 8 ^ R_pe32 [7:0] $end
$var wire 8 _ R_pe31 [7:0] $end
$var wire 8 ` R_pe30 [7:0] $end
$var wire 8 a R_pe22 [7:0] $end
$var wire 8 b R_pe21 [7:0] $end
$var wire 8 c R_pe20 [7:0] $end
$var wire 8 d R_pe12 [7:0] $end
$var wire 8 e R_pe11 [7:0] $end
$var wire 8 f R_pe10 [7:0] $end
$var wire 8 g R_pe02 [7:0] $end
$var wire 8 h R_pe01 [7:0] $end
$var wire 8 i R_pe00 [7:0] $end
$var wire 8 j B_pe23 [7:0] $end
$var wire 8 k B_pe22 [7:0] $end
$var wire 8 l B_pe21 [7:0] $end
$var wire 8 m B_pe20 [7:0] $end
$var wire 8 n B_pe13 [7:0] $end
$var wire 8 o B_pe12 [7:0] $end
$var wire 8 p B_pe11 [7:0] $end
$var wire 8 q B_pe10 [7:0] $end
$var wire 8 r B_pe03 [7:0] $end
$var wire 8 s B_pe02 [7:0] $end
$var wire 8 t B_pe01 [7:0] $end
$var wire 8 u B_pe00 [7:0] $end
$var parameter 32 v BUFFER_SIZE $end
$var parameter 32 w DATA_WIDTH $end
$var parameter 32 x HEIGHT $end
$var parameter 32 y K_SIZE $end
$var parameter 32 z M_SIZE $end
$var parameter 32 { N_SIZE $end
$var parameter 32 | WIDTH $end
$scope module buffer_row_A1 $end
$var wire 1 * clk $end
$var wire 8 } data_in [7:0] $end
$var wire 1 U in_valid $end
$var wire 1 . rst_n $end
$var parameter 32 ~ BUFFER_SIZE $end
$var parameter 32 !" DATA_WIDTH $end
$var reg 8 "" data_out [7:0] $end
$var integer 32 #" i [31:0] $end
$upscope $end
$scope module buffer_row_A2 $end
$var wire 1 * clk $end
$var wire 8 $" data_in [7:0] $end
$var wire 1 T in_valid $end
$var wire 1 . rst_n $end
$var parameter 32 %" BUFFER_SIZE $end
$var parameter 32 &" DATA_WIDTH $end
$var reg 8 '" data_out [7:0] $end
$var integer 32 (" i [31:0] $end
$upscope $end
$scope module buffer_row_A3 $end
$var wire 1 * clk $end
$var wire 8 )" data_in [7:0] $end
$var wire 1 S in_valid $end
$var wire 1 . rst_n $end
$var parameter 32 *" BUFFER_SIZE $end
$var parameter 32 +" DATA_WIDTH $end
$var reg 8 ," data_out [7:0] $end
$var integer 32 -" i [31:0] $end
$upscope $end
$scope module buffer_row_A4 $end
$var wire 1 * clk $end
$var wire 8 ." data_in [7:0] $end
$var wire 1 R in_valid $end
$var wire 1 . rst_n $end
$var parameter 32 /" BUFFER_SIZE $end
$var parameter 32 0" DATA_WIDTH $end
$var reg 8 1" data_out [7:0] $end
$var integer 32 2" i [31:0] $end
$upscope $end
$scope module buffer_row_B1 $end
$var wire 1 * clk $end
$var wire 8 3" data_in [7:0] $end
$var wire 1 Q in_valid $end
$var wire 1 . rst_n $end
$var parameter 32 4" BUFFER_SIZE $end
$var parameter 32 5" DATA_WIDTH $end
$var reg 8 6" data_out [7:0] $end
$var integer 32 7" i [31:0] $end
$upscope $end
$scope module buffer_row_B2 $end
$var wire 1 * clk $end
$var wire 8 8" data_in [7:0] $end
$var wire 1 P in_valid $end
$var wire 1 . rst_n $end
$var parameter 32 9" BUFFER_SIZE $end
$var parameter 32 :" DATA_WIDTH $end
$var reg 8 ;" data_out [7:0] $end
$var integer 32 <" i [31:0] $end
$upscope $end
$scope module buffer_row_B3 $end
$var wire 1 * clk $end
$var wire 8 =" data_in [7:0] $end
$var wire 1 O in_valid $end
$var wire 1 . rst_n $end
$var parameter 32 >" BUFFER_SIZE $end
$var parameter 32 ?" DATA_WIDTH $end
$var reg 8 @" data_out [7:0] $end
$var integer 32 A" i [31:0] $end
$upscope $end
$scope module buffer_row_B4 $end
$var wire 1 * clk $end
$var wire 8 B" data_in [7:0] $end
$var wire 1 N in_valid $end
$var wire 1 . rst_n $end
$var parameter 32 C" BUFFER_SIZE $end
$var parameter 32 D" DATA_WIDTH $end
$var reg 8 E" data_out [7:0] $end
$var integer 32 F" i [31:0] $end
$upscope $end
$scope module control $end
$var wire 1 * clk $end
$var wire 1 + data_valid $end
$var wire 1 . rst_n $end
$var parameter 3 G" COMPUTE $end
$var parameter 3 H" DONE_TILING $end
$var parameter 32 I" HEIGHT $end
$var parameter 3 J" IDLE $end
$var parameter 32 K" K_SIZE $end
$var parameter 3 L" LOAD_DATA $end
$var parameter 32 M" M_SIZE $end
$var parameter 32 N" N_SIZE $end
$var parameter 32 O" ROW_NUM $end
$var parameter 34 P" TILING_COLLUM $end
$var parameter 34 Q" TILING_ROW $end
$var parameter 32 R" WIDTH $end
$var reg 5 S" counter [4:0] $end
$var reg 5 T" counter_buffer [4:0] $end
$var reg 5 U" counter_input [4:0] $end
$var reg 5 V" counter_pixel [4:0] $end
$var reg 5 W" counter_tiling_collum [4:0] $end
$var reg 5 X" counter_tiling_row [4:0] $end
$var reg 2 Y" current_state [1:0] $end
$var reg 1 " done $end
$var reg 4 Z" in_valid_A [3:0] $end
$var reg 4 [" in_valid_B [3:0] $end
$var reg 4 \" mux_select [3:0] $end
$var reg 2 ]" next_state [1:0] $end
$var reg 1 ! read_data $end
$var reg 1 K set_reg_path_1 $end
$var reg 1 J set_reg_path_2 $end
$var reg 1 I set_reg_path_3 $end
$var reg 1 H set_reg_path_4 $end
$var reg 1 G set_reg_path_5 $end
$var reg 1 F set_reg_path_6 $end
$var reg 1 E set_reg_path_7 $end
$var reg 1 ^" start_compute $end
$upscope $end
$scope module pe00 $end
$var wire 1 * clk $end
$var wire 8 _" left_in [7:0] $end
$var wire 1 . rst_n $end
$var wire 1 K set_reg $end
$var wire 8 `" top_in [7:0] $end
$var wire 16 a" sum [15:0] $end
$var parameter 32 b" DATA_WIDTH $end
$var reg 8 c" bottom_out [7:0] $end
$var reg 16 d" result [15:0] $end
$var reg 8 e" right_out [7:0] $end
$upscope $end
$scope module pe01 $end
$var wire 1 * clk $end
$var wire 8 f" left_in [7:0] $end
$var wire 1 . rst_n $end
$var wire 1 J set_reg $end
$var wire 8 g" top_in [7:0] $end
$var wire 16 h" sum [15:0] $end
$var parameter 32 i" DATA_WIDTH $end
$var reg 8 j" bottom_out [7:0] $end
$var reg 16 k" result [15:0] $end
$var reg 8 l" right_out [7:0] $end
$upscope $end
$scope module pe02 $end
$var wire 1 * clk $end
$var wire 8 m" left_in [7:0] $end
$var wire 1 . rst_n $end
$var wire 1 I set_reg $end
$var wire 8 n" top_in [7:0] $end
$var wire 16 o" sum [15:0] $end
$var parameter 32 p" DATA_WIDTH $end
$var reg 8 q" bottom_out [7:0] $end
$var reg 16 r" result [15:0] $end
$var reg 8 s" right_out [7:0] $end
$upscope $end
$scope module pe03 $end
$var wire 1 * clk $end
$var wire 8 t" left_in [7:0] $end
$var wire 1 . rst_n $end
$var wire 1 H set_reg $end
$var wire 8 u" top_in [7:0] $end
$var wire 16 v" sum [15:0] $end
$var parameter 32 w" DATA_WIDTH $end
$var reg 8 x" bottom_out [7:0] $end
$var reg 16 y" result [15:0] $end
$var reg 8 z" right_out [7:0] $end
$upscope $end
$scope module pe10 $end
$var wire 1 * clk $end
$var wire 8 {" left_in [7:0] $end
$var wire 1 . rst_n $end
$var wire 1 J set_reg $end
$var wire 8 |" top_in [7:0] $end
$var wire 16 }" sum [15:0] $end
$var parameter 32 ~" DATA_WIDTH $end
$var reg 8 !# bottom_out [7:0] $end
$var reg 16 "# result [15:0] $end
$var reg 8 ## right_out [7:0] $end
$upscope $end
$scope module pe11 $end
$var wire 1 * clk $end
$var wire 8 $# left_in [7:0] $end
$var wire 1 . rst_n $end
$var wire 1 I set_reg $end
$var wire 8 %# top_in [7:0] $end
$var wire 16 &# sum [15:0] $end
$var parameter 32 '# DATA_WIDTH $end
$var reg 8 (# bottom_out [7:0] $end
$var reg 16 )# result [15:0] $end
$var reg 8 *# right_out [7:0] $end
$upscope $end
$scope module pe12 $end
$var wire 1 * clk $end
$var wire 8 +# left_in [7:0] $end
$var wire 1 . rst_n $end
$var wire 1 H set_reg $end
$var wire 8 ,# top_in [7:0] $end
$var wire 16 -# sum [15:0] $end
$var parameter 32 .# DATA_WIDTH $end
$var reg 8 /# bottom_out [7:0] $end
$var reg 16 0# result [15:0] $end
$var reg 8 1# right_out [7:0] $end
$upscope $end
$scope module pe13 $end
$var wire 1 * clk $end
$var wire 8 2# left_in [7:0] $end
$var wire 1 . rst_n $end
$var wire 1 G set_reg $end
$var wire 8 3# top_in [7:0] $end
$var wire 16 4# sum [15:0] $end
$var parameter 32 5# DATA_WIDTH $end
$var reg 8 6# bottom_out [7:0] $end
$var reg 16 7# result [15:0] $end
$var reg 8 8# right_out [7:0] $end
$upscope $end
$scope module pe20 $end
$var wire 1 * clk $end
$var wire 8 9# left_in [7:0] $end
$var wire 1 . rst_n $end
$var wire 1 I set_reg $end
$var wire 8 :# top_in [7:0] $end
$var wire 16 ;# sum [15:0] $end
$var parameter 32 <# DATA_WIDTH $end
$var reg 8 =# bottom_out [7:0] $end
$var reg 16 ># result [15:0] $end
$var reg 8 ?# right_out [7:0] $end
$upscope $end
$scope module pe21 $end
$var wire 1 * clk $end
$var wire 8 @# left_in [7:0] $end
$var wire 1 . rst_n $end
$var wire 1 H set_reg $end
$var wire 8 A# top_in [7:0] $end
$var wire 16 B# sum [15:0] $end
$var parameter 32 C# DATA_WIDTH $end
$var reg 8 D# bottom_out [7:0] $end
$var reg 16 E# result [15:0] $end
$var reg 8 F# right_out [7:0] $end
$upscope $end
$scope module pe22 $end
$var wire 1 * clk $end
$var wire 8 G# left_in [7:0] $end
$var wire 1 . rst_n $end
$var wire 1 G set_reg $end
$var wire 8 H# top_in [7:0] $end
$var wire 16 I# sum [15:0] $end
$var parameter 32 J# DATA_WIDTH $end
$var reg 8 K# bottom_out [7:0] $end
$var reg 16 L# result [15:0] $end
$var reg 8 M# right_out [7:0] $end
$upscope $end
$scope module pe23 $end
$var wire 1 * clk $end
$var wire 8 N# left_in [7:0] $end
$var wire 1 . rst_n $end
$var wire 1 F set_reg $end
$var wire 8 O# top_in [7:0] $end
$var wire 16 P# sum [15:0] $end
$var parameter 32 Q# DATA_WIDTH $end
$var reg 8 R# bottom_out [7:0] $end
$var reg 16 S# result [15:0] $end
$var reg 8 T# right_out [7:0] $end
$upscope $end
$scope module pe30 $end
$var wire 1 * clk $end
$var wire 8 U# left_in [7:0] $end
$var wire 1 . rst_n $end
$var wire 1 H set_reg $end
$var wire 8 V# top_in [7:0] $end
$var wire 16 W# sum [15:0] $end
$var parameter 32 X# DATA_WIDTH $end
$var reg 8 Y# bottom_out [7:0] $end
$var reg 16 Z# result [15:0] $end
$var reg 8 [# right_out [7:0] $end
$upscope $end
$scope module pe31 $end
$var wire 1 * clk $end
$var wire 8 \# left_in [7:0] $end
$var wire 1 . rst_n $end
$var wire 1 G set_reg $end
$var wire 8 ]# top_in [7:0] $end
$var wire 16 ^# sum [15:0] $end
$var parameter 32 _# DATA_WIDTH $end
$var reg 8 `# bottom_out [7:0] $end
$var reg 16 a# result [15:0] $end
$var reg 8 b# right_out [7:0] $end
$upscope $end
$scope module pe32 $end
$var wire 1 * clk $end
$var wire 8 c# left_in [7:0] $end
$var wire 1 . rst_n $end
$var wire 1 F set_reg $end
$var wire 8 d# top_in [7:0] $end
$var wire 16 e# sum [15:0] $end
$var parameter 32 f# DATA_WIDTH $end
$var reg 8 g# bottom_out [7:0] $end
$var reg 16 h# result [15:0] $end
$var reg 8 i# right_out [7:0] $end
$upscope $end
$scope module pe33 $end
$var wire 1 * clk $end
$var wire 8 j# left_in [7:0] $end
$var wire 1 . rst_n $end
$var wire 1 E set_reg $end
$var wire 8 k# top_in [7:0] $end
$var wire 16 l# sum [15:0] $end
$var parameter 32 m# DATA_WIDTH $end
$var reg 8 n# bottom_out [7:0] $end
$var reg 16 o# result [15:0] $end
$var reg 8 p# right_out [7:0] $end
$upscope $end
$upscope $end
$scope task compare $end
$var integer 32 q# i [31:0] $end
$upscope $end
$upscope $end
$enddefinitions $end
$comment Show the parameter values. $end
$dumpall
b1000 m#
b1000 f#
b1000 _#
b1000 X#
b1000 Q#
b1000 J#
b1000 C#
b1000 <#
b1000 5#
b1000 .#
b1000 '#
b1000 ~"
b1000 w"
b1000 p"
b1000 i"
b1000 b"
b100 R"
b1 Q"
b100 P"
b100 O"
b100 N"
b100 M"
b1 L"
b10000 K"
b0 J"
b100 I"
b11 H"
b10 G"
b1000 D"
b100 C"
b1000 ?"
b100 >"
b1000 :"
b100 9"
b1000 5"
b100 4"
b1000 0"
b100 /"
b1000 +"
b100 *"
b1000 &"
b100 %"
b1000 !"
b100 ~
b100 |
b100 {
b100 z
b10000 y
b100 x
b1000 w
b100 v
b100 '
b100 &
b10000 %
$end
#0
$dumpvars
bx q#
b0 p#
b0 o#
b0 n#
b0 l#
b0 k#
b0 j#
b0 i#
b0 h#
b0 g#
b0 e#
b0 d#
b0 c#
b0 b#
b0 a#
b0 `#
b0 ^#
b0 ]#
b0 \#
b0 [#
b0 Z#
b0 Y#
b0 W#
b0 V#
b0 U#
b0 T#
b0 S#
b0 R#
b0 P#
b0 O#
b0 N#
b0 M#
b0 L#
b0 K#
b0 I#
b0 H#
b0 G#
b0 F#
b0 E#
b0 D#
b0 B#
b0 A#
b0 @#
b0 ?#
b0 >#
b0 =#
b0 ;#
b0 :#
b0 9#
b0 8#
b0 7#
b0 6#
b0 4#
b0 3#
b0 2#
b0 1#
b0 0#
b0 /#
b0 -#
b0 ,#
b0 +#
b0 *#
b0 )#
b0 (#
b0 &#
b0 %#
b0 $#
b0 ##
b0 "#
b0 !#
b0 }"
b0 |"
b0 {"
b0 z"
b0 y"
b0 x"
b0 v"
b0 u"
b0 t"
b0 s"
b0 r"
b0 q"
b0 o"
b0 n"
b0 m"
b0 l"
b0 k"
b0 j"
b0 h"
b0 g"
b0 f"
b0 e"
b0 d"
b0 c"
b0 a"
b0 `"
b0 _"
x^"
bx ]"
bx \"
b0 ["
b0 Z"
b0 Y"
b0 X"
b0 W"
b0 V"
b0 U"
b0 T"
b0 S"
bx F"
b0 E"
bx B"
bx A"
b0 @"
bx ="
bx <"
b0 ;"
bx 8"
bx 7"
b0 6"
bx 3"
bx 2"
b0 1"
bx ."
bx -"
b0 ,"
bx )"
bx ("
b0 '"
bx $"
bx #"
b0 ""
bx }
b0 u
b0 t
b0 s
b0 r
b0 q
b0 p
b0 o
b0 n
b0 m
b0 l
b0 k
b0 j
b0 i
b0 h
b0 g
b0 f
b0 e
b0 d
b0 c
b0 b
b0 a
b0 `
b0 _
b0 ^
b0 ]
b0 \
b0 [
b0 Z
b0 Y
b0 X
b0 W
b0 V
0U
0T
0S
0R
0Q
0P
0O
0N
b0 M
b0 L
xK
xJ
xI
xH
xG
xF
xE
b0 D
b0 C
b0 B
b0 A
b0 @
b0 ?
b0 >
b0 =
b0 <
b0 ;
b0 :
b0 9
b0 8
b0 7
b0 6
b0 5
bx 4
bx 3
bx 2
bx 1
bx 0
x/
0.
x-
x,
x+
0*
bx )
bx (
bx $
bx #
0"
x!
$end
#5
b0 #
b0 4
b0 3"
b0 8"
b0 ="
b0 B"
b0 $
b0 3
b0 }
b0 $"
b0 )"
b0 ."
0-
b0 )
0,
b0 (
1*
#10
0*
1.
#15
bx $
bx 3
bx }
bx $"
bx )"
bx ."
bx #
bx 4
bx 3"
bx 8"
bx ="
bx B"
b0 ]"
bx Y"
x,
x-
b100 #"
b100 ("
b100 -"
b100 2"
b100 7"
b100 <"
b100 A"
b100 F"
1*
#20
0*
#25
0^"
b0 Y"
b100 F"
b100 A"
b100 <"
b100 7"
b100 2"
b100 -"
b100 ("
b100 #"
1*
#30
0*
#35
b100 #"
b100 ("
b100 -"
b100 2"
b100 7"
b100 <"
b100 A"
b100 F"
1*
#40
0*
#45
b100 F"
b100 A"
b100 <"
b100 7"
b100 2"
b100 -"
b100 ("
b100 #"
1*
#50
b1 ]"
0*
1+
#55
b1 Y"
b1 T"
b1 U"
1!
b100 #"
b100 ("
b100 -"
b100 2"
b100 7"
b100 <"
b100 A"
b100 F"
1*
#60
0*
0+
#65
b1 #
b1 4
b1 3"
b1 8"
b1 ="
b1 B"
b100 $
b100 3
b100 }
b100 $"
b100 )"
b100 ."
1Q
1U
b1 )
1-
b1 (
1,
b1000 L
b1000 ["
b1000 M
b1000 Z"
b10 T"
b10 U"
b100 F"
b100 A"
b100 <"
b100 7"
b100 2"
b100 -"
b100 ("
b100 #"
1*
#70
0*
#75
b10 $
b10 3
b10 }
b10 $"
b10 )"
b10 ."
b10 #
b10 4
b10 3"
b10 8"
b10 ="
b10 B"
b11 T"
b11 U"
b10 (
b10 )
b100 ("
b100 -"
b100 2"
b100 <"
b100 A"
b100 F"
1*
#80
0*
#85
b101 #
b101 4
b101 3"
b101 8"
b101 ="
b101 B"
b1 $
b1 3
b1 }
b1 $"
b1 )"
b1 ."
b11 )
b11 (
b100 T"
b100 U"
b100 F"
b100 A"
b100 <"
b100 2"
b100 -"
b100 ("
1*
#90
0*
#95
b10 $
b10 3
b10 }
b10 $"
b10 )"
b10 ."
b11 #
b11 4
b11 3"
b11 8"
b11 ="
b11 B"
b101 T"
b101 U"
b100 (
b100 )
b100 ("
b100 -"
b100 2"
b100 <"
b100 A"
b100 F"
1*
#100
0*
#105
b1 #
b1 4
b1 3"
b1 8"
b1 ="
b1 B"
b11 $
b11 3
b11 }
b11 $"
b11 )"
b11 ."
1P
0Q
1T
0U
b101 )
b101 (
b100 L
b100 ["
b100 M
b100 Z"
b110 T"
b110 U"
b100 F"
b100 A"
b100 <"
b100 2"
b100 -"
b100 ("
1*
#110
0*
#115
b10 $
b10 3
b10 }
b10 $"
b10 )"
b10 ."
b101 #
b101 4
b101 3"
b101 8"
b101 ="
b101 B"
b111 T"
b111 U"
b110 (
b110 )
b100 #"
b100 -"
b100 2"
b100 7"
b100 A"
b100 F"
1*
#120
0*
#125
b10 #
b10 4
b10 3"
b10 8"
b10 ="
b10 B"
b101 $
b101 3
b101 }
b101 $"
b101 )"
b101 ."
b111 )
b111 (
b1000 T"
b1000 U"
b100 F"
b100 A"
b100 7"
b100 2"
b100 -"
b100 #"
1*
#130
0*
#135
b11 $
b11 3
b11 }
b11 $"
b11 )"
b11 ."
b1 #
b1 4
b1 3"
b1 8"
b1 ="
b1 B"
b1001 T"
b1001 U"
b1000 (
b1000 )
b100 #"
b100 -"
b100 2"
b100 7"
b100 A"
b100 F"
1*
#140
0*
#145
b101 #
b101 4
b101 3"
b101 8"
b101 ="
b101 B"
b100 $
b100 3
b100 }
b100 $"
b100 )"
b100 ."
1O
0P
1S
0T
b1001 )
b1001 (
b10 L
b10 ["
b10 M
b10 Z"
b1010 T"
b1010 U"
b100 F"
b100 A"
b100 7"
b100 2"
b100 -"
b100 #"
1*
#150
0*
#155
b10 $
b10 3
b10 }
b10 $"
b10 )"
b10 ."
b1011 T"
b1011 U"
b1010 (
b1010 )
b100 #"
b100 ("
b100 2"
b100 7"
b100 <"
b100 F"
1*
#160
0*
#165
b11 #
b11 4
b11 3"
b11 8"
b11 ="
b11 B"
b1 $
b1 3
b1 }
b1 $"
b1 )"
b1 ."
b1011 )
b1011 (
b1100 T"
b1100 U"
b100 F"
b100 <"
b100 7"
b100 2"
b100 ("
b100 #"
1*
#170
0*
#175
b11 $
b11 3
b11 }
b11 $"
b11 )"
b11 ."
b101 #
b101 4
b101 3"
b101 8"
b101 ="
b101 B"
b1101 T"
b1101 U"
b1100 (
b1100 )
b100 #"
b100 ("
b100 2"
b100 7"
b100 <"
b100 F"
1*
#180
0*
#185
b1 $
b1 3
b1 }
b1 $"
b1 )"
b1 ."
1N
0O
1R
0S
b1101 )
b1101 (
b1 L
b1 ["
b1 M
b1 Z"
b1110 T"
b1110 U"
b100 F"
b100 <"
b100 7"
b100 2"
b100 ("
b100 #"
1*
#190
0*
#195
b11 $
b11 3
b11 }
b11 $"
b11 )"
b11 ."
b1 #
b1 4
b1 3"
b1 8"
b1 ="
b1 B"
b1111 T"
b1111 U"
b1110 (
b1110 )
b100 #"
b100 ("
b100 -"
b100 7"
b100 <"
b100 A"
1*
#200
0*
#205
b10 #
b10 4
b10 3"
b10 8"
b10 ="
b10 B"
b1 $
b1 3
b1 }
b1 $"
b1 )"
b1 ."
b1111 )
b1111 (
b10000 T"
b10000 U"
b1 W"
b100 A"
b100 <"
b100 7"
b100 -"
b100 ("
b100 #"
1*
#210
0*
#215
b100 $
b100 3
b100 }
b100 $"
b100 )"
b100 ."
b10 ]"
1^"
b10001 T"
b10001 U"
0!
b10000 (
b10000 )
b100 #"
b100 ("
b100 -"
b100 7"
b100 <"
b100 A"
1*
#220
0*
#225
b0 #
b0 4
b0 3"
b0 8"
b0 ="
b0 B"
b0 $
b0 3
b0 }
b0 $"
b0 )"
b0 ."
0N
1Q
0R
1U
0-
0,
0E
0F
0G
0H
0I
0J
0K
b1000 L
b1000 ["
b1000 M
b1000 Z"
b1 V"
b1 S"
b0 U"
b10 Y"
b100 A"
b100 <"
b100 7"
b100 -"
b100 ("
b100 #"
1*
#230
0*
#235
b100 a"
1P
1T
b100 ]
b100 ""
b100 _"
b1 Y
b1 6"
b1 `"
1K
b1100 L
b1100 ["
b1100 M
b1100 Z"
b10 V"
b10 S"
b100 ("
b100 -"
b100 2"
b100 <"
b100 A"
b100 F"
1*
#240
0*
#245
1O
1S
b11 }"
b100 h"
b100 a"
1J
b1110 L
b1110 ["
b1110 M
b1110 Z"
b11 V"
b11 S"
b1 u
b1 c"
b1 |"
b100 i
b100 e"
b100 f"
b100 5
b100 d"
b1 X
b1 ;"
b1 g"
b10 Y
b10 6"
b10 `"
b11 \
b11 '"
b11 {"
b10 ]
b10 ""
b10 _"
b100 F"
b100 A"
b100 2"
b100 -"
1*
#250
0*
#255
b100 ;#
b101 a"
b10100 o"
b100 }"
b1010 h"
b11 &#
1N
1R
b1 ]
b1 ""
b1 _"
b10 \
b10 '"
b10 {"
b100 [
b100 ,"
b100 9#
b101 Y
b101 6"
b101 `"
b101 X
b101 ;"
b101 g"
b101 W
b101 @"
b101 n"
b10 u
b10 c"
b10 |"
b10 i
b10 e"
b10 f"
b1000 5
b1000 d"
b1 t
b1 j"
b1 %#
b100 h
b100 l"
b100 m"
b100 6
b100 k"
b1 q
b1 !#
b1 :#
b11 f
b11 ##
b11 $#
b11 9
b11 "#
1I
b1111 L
b1111 ["
b1111 M
b1111 Z"
b100 V"
b100 S"
b100 2"
b100 F"
1*
#260
0*
#265
b1 W#
b100 B#
b1111 -#
b10100 v"
b1010 &#
b1010 o"
b10 h"
b100 ;#
b11001 }"
b110 a"
1H
b101 V"
b101 S"
b1 m
b1 =#
b1 V#
b100 c
b100 ?#
b100 @#
b100 =
b100 >#
b1 p
b1 (#
b1 A#
b11 e
b11 *#
b11 +#
b11 :
b11 )#
b10 q
b10 !#
b10 :#
b10 f
b10 ##
b10 $#
b111 9
b111 "#
b101 s
b101 q"
b101 ,#
b100 g
b100 s"
b100 t"
b10100 7
b10100 r"
b101 t
b101 j"
b101 %#
b10 h
b10 l"
b10 m"
b1110 6
b1110 k"
b101 u
b101 c"
b101 |"
b1 i
b1 e"
b1 f"
b1101 5
b1101 d"
b101 V
b101 E"
b101 u"
b10 X
b10 ;"
b10 g"
b11 Y
b11 6"
b11 `"
b1 Z
b1 1"
b1 U#
b10 [
b10 ,"
b10 9#
b101 \
b101 '"
b101 {"
b10 ]
b10 ""
b10 _"
1*
#270
0*
#275
b0 a"
b1001 }"
b10 h"
b11 o"
b10 v"
b1111 4#
b101 ;#
b1010 &#
b1010 -#
b10100 I#
b110 W#
b1010 B#
b1 ^#
b0 ]
b0 ""
b0 _"
b11 \
b11 '"
b11 {"
b1 [
b1 ,"
b1 9#
b11 Z
b11 1"
b11 U#
b0 Y
b0 6"
b0 `"
b1 X
b1 ;"
b1 g"
b11 W
b11 @"
b11 n"
b1 V
b1 E"
b1 u"
b11 u
b11 c"
b11 |"
b10 i
b10 e"
b10 f"
b10011 5
b10011 d"
b10 t
b10 j"
b10 %#
b1 h
b1 l"
b1 m"
b10000 6
b10000 k"
b10 g
b10 s"
b10 t"
b11110 7
b11110 r"
b101 r
b101 x"
b101 3#
b100 z"
b10100 8
b10100 y"
b101 q
b101 !#
b101 :#
b101 f
b101 ##
b101 $#
b100000 9
b100000 "#
b101 p
b101 (#
b101 A#
b10 e
b10 *#
b10 +#
b1101 :
b1101 )#
b101 o
b101 /#
b101 H#
b11 d
b11 1#
b11 2#
b1111 ;
b1111 0#
b10 m
b10 =#
b10 V#
b10 c
b10 ?#
b10 @#
b1000 =
b1000 >#
b1 l
b1 D#
b1 ]#
b100 b
b100 F#
b100 G#
b100 >
b100 E#
b1 Y#
b1 `
b1 [#
b1 \#
b1 A
b1 Z#
1G
0K
b110 V"
b110 S"
1*
#280
0*
#285
b101 e#
b10100 P#
b1111 ^#
b1010 I#
b10 B#
b10 4#
b1111 -#
b11 &#
b10 v"
b1010 o"
b0 h"
b101 W#
b1001 ;#
b0 }"
1F
0J
b111 V"
b111 S"
b1 `#
b1 _
b1 b#
b1 c#
b1 B
b1 a#
b10 Y#
b11 `
b11 [#
b11 \#
b111 A
b111 Z#
b101 k
b101 K#
b101 d#
b100 a
b100 M#
b100 N#
b10100 ?
b10100 L#
b101 l
b101 D#
b101 ]#
b10 b
b10 F#
b10 G#
b1110 >
b1110 E#
b101 m
b101 =#
b101 V#
b1 c
b1 ?#
b1 @#
b1101 =
b1101 >#
b101 n
b101 6#
b101 O#
b11 8#
b1111 <
b1111 7#
b10 d
b10 1#
b10 2#
b11001 ;
b11001 0#
b10 p
b10 (#
b10 A#
b101 e
b101 *#
b101 +#
b10111 :
b10111 )#
b11 q
b11 !#
b11 :#
b11 f
b11 ##
b11 $#
b101001 9
b101001 "#
b1 r
b1 x"
b1 3#
b10 z"
b10110 8
b10110 y"
b11 s
b11 q"
b11 ,#
b1 g
b1 s"
b1 t"
b100001 7
b100001 r"
b1 t
b1 j"
b1 %#
b10 h
b10 l"
b10 m"
b10010 6
b10010 k"
b0 u
b0 c"
b0 |"
b0 i
b0 e"
b0 f"
b10 V
b10 E"
b10 u"
b101 W
b101 @"
b101 n"
b0 X
b0 ;"
b0 g"
b1 Z
b1 1"
b1 U#
b11 [
b11 ,"
b11 9#
b0 \
b0 '"
b0 {"
1*
#290
0*
