4x4_tiling/syntolic.VCD
$date
	Fri Jan 17 20:02:22 2025
$end
$version
	Icarus Verilog
$end
$timescale
	1s
$end
$scope module tb $end
$var wire 1 ! read_data $end
$var wire 1 " done $end
$var wire 8 # data_in_B [7:0] $end
$var wire 8 $ data_in_A [7:0] $end
$var reg 10 % add_A_cnt [9:0] $end
$var reg 10 & add_B_cnt [9:0] $end
$var reg 1 ' clk $end
$var reg 5 ( counter [4:0] $end
$var reg 1 ) data_valid $end
$var reg 1 * read_reg $end
$var reg 1 + read_reg_1 $end
$var reg 1 , rst_n $end
$var reg 1 - start_compute $end
$var integer 32 . file [31:0] $end
$var integer 32 / i [31:0] $end
$var integer 32 0 j [31:0] $end
$var integer 32 1 k [31:0] $end
$scope module top $end
$var wire 1 ' clk $end
$var wire 8 2 data_in_A [7:0] $end
$var wire 8 3 data_in_B [7:0] $end
$var wire 1 ) data_valid $end
$var wire 16 4 output_00 [15:0] $end
$var wire 16 5 output_01 [15:0] $end
$var wire 16 6 output_02 [15:0] $end
$var wire 16 7 output_03 [15:0] $end
$var wire 16 8 output_10 [15:0] $end
$var wire 16 9 output_11 [15:0] $end
$var wire 16 : output_12 [15:0] $end
$var wire 16 ; output_13 [15:0] $end
$var wire 16 < output_20 [15:0] $end
$var wire 16 = output_21 [15:0] $end
$var wire 16 > output_22 [15:0] $end
$var wire 16 ? output_23 [15:0] $end
$var wire 16 @ output_30 [15:0] $end
$var wire 16 A output_31 [15:0] $end
$var wire 16 B output_32 [15:0] $end
$var wire 16 C output_33 [15:0] $end
$var wire 1 D reset_registe $end
$var wire 1 E reset_register $end
$var wire 1 , rst_n $end
$var wire 1 - start_compute $end
$var wire 1 F set_write_data $end
$var wire 3 G set_reg_wdata [2:0] $end
$var wire 1 H set_reg_path_7 $end
$var wire 1 I set_reg_path_6 $end
$var wire 1 J set_reg_path_5 $end
$var wire 1 K set_reg_path_4 $end
$var wire 1 L set_reg_path_3 $end
$var wire 1 M set_reg_path_2 $end
$var wire 1 N set_reg_path_1 $end
$var wire 1 O set_reg_33 $end
$var wire 1 P set_reg_32 $end
$var wire 1 Q set_reg_31 $end
$var wire 1 R set_reg_30 $end
$var wire 1 S set_reg_23 $end
$var wire 1 T set_reg_22 $end
$var wire 1 U set_reg_21 $end
$var wire 1 V set_reg_20 $end
$var wire 1 W set_reg_13 $end
$var wire 1 X set_reg_12 $end
$var wire 1 Y set_reg_11 $end
$var wire 1 Z set_reg_10 $end
$var wire 1 [ sel_mux $end
$var wire 1 \ reset_reg $end
$var wire 1 ! read_data $end
$var wire 16 ] psum_33 [15:0] $end
$var wire 16 ^ psum_32 [15:0] $end
$var wire 16 _ psum_31 [15:0] $end
$var wire 16 ` psum_30 [15:0] $end
$var wire 16 a psum_23 [15:0] $end
$var wire 16 b psum_22 [15:0] $end
$var wire 16 c psum_21 [15:0] $end
$var wire 16 d psum_20 [15:0] $end
$var wire 16 e psum_13 [15:0] $end
$var wire 16 f psum_12 [15:0] $end
$var wire 16 g psum_11 [15:0] $end
$var wire 16 h psum_10 [15:0] $end
$var wire 16 i psum_03 [15:0] $end
$var wire 16 j psum_02 [15:0] $end
$var wire 16 k psum_01 [15:0] $end
$var wire 16 l psum_00 [15:0] $end
$var wire 1 m in_valid_C $end
$var wire 4 n in_valid_B [3:0] $end
$var wire 4 o in_valid_A [3:0] $end
$var wire 1 p in_valid_8 $end
$var wire 1 q in_valid_7 $end
$var wire 1 r in_valid_6 $end
$var wire 1 s in_valid_5 $end
$var wire 1 t in_valid_4 $end
$var wire 1 u in_valid_3 $end
$var wire 1 v in_valid_2 $end
$var wire 1 w in_valid_1 $end
$var wire 1 " done $end
$var wire 1 x data_output_valid $end
$var wire 8 y bf_to_pe_8 [7:0] $end
$var wire 8 z bf_to_pe_7 [7:0] $end
$var wire 8 { bf_to_pe_6 [7:0] $end
$var wire 8 | bf_to_pe_5 [7:0] $end
$var wire 8 } bf_to_pe_4 [7:0] $end
$var wire 8 ~ bf_to_pe_3 [7:0] $end
$var wire 8 !" bf_to_pe_2 [7:0] $end
$var wire 8 "" bf_to_pe_1 [7:0] $end
$var wire 8 #" R_pe32 [7:0] $end
$var wire 8 $" R_pe31 [7:0] $end
$var wire 8 %" R_pe30 [7:0] $end
$var wire 8 &" R_pe22 [7:0] $end
$var wire 8 '" R_pe21 [7:0] $end
$var wire 8 (" R_pe20 [7:0] $end
$var wire 8 )" R_pe12 [7:0] $end
$var wire 8 *" R_pe11 [7:0] $end
$var wire 8 +" R_pe10 [7:0] $end
$var wire 8 ," R_pe02 [7:0] $end
$var wire 8 -" R_pe01 [7:0] $end
$var wire 8 ." R_pe00 [7:0] $end
$var wire 8 /" B_pe33 [7:0] $end
$var wire 8 0" B_pe32 [7:0] $end
$var wire 8 1" B_pe31 [7:0] $end
$var wire 8 2" B_pe30 [7:0] $end
$var wire 8 3" B_pe23 [7:0] $end
$var wire 8 4" B_pe22 [7:0] $end
$var wire 8 5" B_pe21 [7:0] $end
$var wire 8 6" B_pe20 [7:0] $end
$var wire 8 7" B_pe13 [7:0] $end
$var wire 8 8" B_pe12 [7:0] $end
$var wire 8 9" B_pe11 [7:0] $end
$var wire 8 :" B_pe10 [7:0] $end
$var wire 8 ;" B_pe03 [7:0] $end
$var wire 8 <" B_pe02 [7:0] $end
$var wire 8 =" B_pe01 [7:0] $end
$var wire 8 >" B_pe00 [7:0] $end
$scope module buffer_row_A1 $end
$var wire 1 ' clk $end
$var wire 8 ?" data_in [7:0] $end
$var wire 1 w in_valid $end
$var wire 1 , rst_n $end
$var reg 8 @" data_out [7:0] $end
$var integer 32 A" i [31:0] $end
$upscope $end
$scope module buffer_row_A2 $end
$var wire 1 ' clk $end
$var wire 8 B" data_in [7:0] $end
$var wire 1 v in_valid $end
$var wire 1 , rst_n $end
$var reg 8 C" data_out [7:0] $end
$var integer 32 D" i [31:0] $end
$upscope $end
$scope module buffer_row_A3 $end
$var wire 1 ' clk $end
$var wire 8 E" data_in [7:0] $end
$var wire 1 u in_valid $end
$var wire 1 , rst_n $end
$var reg 8 F" data_out [7:0] $end
$var integer 32 G" i [31:0] $end
$upscope $end
$scope module buffer_row_A4 $end
$var wire 1 ' clk $end
$var wire 8 H" data_in [7:0] $end
$var wire 1 t in_valid $end
$var wire 1 , rst_n $end
$var reg 8 I" data_out [7:0] $end
$var integer 32 J" i [31:0] $end
$upscope $end
$scope module buffer_row_B1 $end
$var wire 1 ' clk $end
$var wire 8 K" data_in [7:0] $end
$var wire 1 s in_valid $end
$var wire 1 , rst_n $end
$var reg 8 L" data_out [7:0] $end
$var integer 32 M" i [31:0] $end
$upscope $end
$scope module buffer_row_B2 $end
$var wire 1 ' clk $end
$var wire 8 N" data_in [7:0] $end
$var wire 1 r in_valid $end
$var wire 1 , rst_n $end
$var reg 8 O" data_out [7:0] $end
$var integer 32 P" i [31:0] $end
$upscope $end
$scope module buffer_row_B3 $end
$var wire 1 ' clk $end
$var wire 8 Q" data_in [7:0] $end
$var wire 1 q in_valid $end
$var wire 1 , rst_n $end
$var reg 8 R" data_out [7:0] $end
$var integer 32 S" i [31:0] $end
$upscope $end
$scope module buffer_row_B4 $end
$var wire 1 ' clk $end
$var wire 8 T" data_in [7:0] $end
$var wire 1 p in_valid $end
$var wire 1 , rst_n $end
$var reg 8 U" data_out [7:0] $end
$var integer 32 V" i [31:0] $end
$upscope $end
$scope module buffer_row_C1 $end
$var wire 1 ' clk $end
$var wire 1 , rst_n $end
$var wire 1 m in_valid $end
$var wire 16 W" data_in [15:0] $end
$var reg 16 X" data_out [15:0] $end
$var integer 32 Y" i [31:0] $end
$upscope $end
$scope module buffer_row_C2 $end
$var wire 1 ' clk $end
$var wire 1 , rst_n $end
$var wire 1 m in_valid $end
$var wire 16 Z" data_in [15:0] $end
$var reg 16 [" data_out [15:0] $end
$var integer 32 \" i [31:0] $end
$upscope $end
$scope module buffer_row_C3 $end
$var wire 1 ' clk $end
$var wire 1 , rst_n $end
$var wire 1 m in_valid $end
$var wire 16 ]" data_in [15:0] $end
$var reg 16 ^" data_out [15:0] $end
$var integer 32 _" i [31:0] $end
$upscope $end
$scope module buffer_row_C4 $end
$var wire 1 ' clk $end
$var wire 1 , rst_n $end
$var wire 1 m in_valid $end
$var wire 16 `" data_in [15:0] $end
$var reg 16 a" data_out [15:0] $end
$var integer 32 b" i [31:0] $end
$upscope $end
$scope module control $end
$var wire 1 ' clk $end
$var wire 1 ) data_valid $end
$var wire 1 , rst_n $end
$var wire 5 c" test [4:0] $end
$var reg 5 d" counter [4:0] $end
$var reg 5 e" counter_buffer [4:0] $end
$var reg 5 f" counter_input [4:0] $end
$var reg 5 g" counter_pixel [4:0] $end
$var reg 5 h" counter_tiling_A [4:0] $end
$var reg 5 i" counter_tiling_collum [4:0] $end
$var reg 5 j" counter_tiling_output [4:0] $end
$var reg 5 k" counter_tiling_row [4:0] $end
$var reg 3 l" counter_write_data [2:0] $end
$var reg 3 m" current_state [2:0] $end
$var reg 1 x data_output_valid $end
$var reg 1 " done $end
$var reg 4 n" in_valid_A [3:0] $end
$var reg 4 o" in_valid_B [3:0] $end
$var reg 1 m in_valid_C $end
$var reg 4 p" mux_select [3:0] $end
$var reg 3 q" next_state [2:0] $end
$var reg 1 ! read_data $end
$var reg 1 \ reset_reg $end
$var reg 1 [ sel_mux $end
$var reg 1 N set_reg_path_1 $end
$var reg 1 M set_reg_path_2 $end
$var reg 1 L set_reg_path_3 $end
$var reg 1 K set_reg_path_4 $end
$var reg 1 J set_reg_path_5 $end
$var reg 1 I set_reg_path_6 $end
$var reg 1 H set_reg_path_7 $end
$var reg 3 r" set_reg_wdata [2:0] $end
$var reg 1 F set_write_data $end
$var reg 1 s" start_compute $end
$upscope $end
$scope module pe00 $end
$var wire 1 ' clk $end
$var wire 8 t" left_in [7:0] $end
$var wire 16 u" psum_in [15:0] $end
$var wire 16 v" psum_out [15:0] $end
$var wire 1 D rst_n $end
$var wire 1 [ sel_mux $end
$var wire 1 N set_reg $end
$var wire 8 w" top_in [7:0] $end
$var wire 16 x" sum [15:0] $end
$var reg 8 y" bottom_out [7:0] $end
$var reg 16 z" result [15:0] $end
$var reg 8 {" right_out [7:0] $end
$upscope $end
$scope module pe01 $end
$var wire 1 ' clk $end
$var wire 8 |" left_in [7:0] $end
$var wire 16 }" psum_in [15:0] $end
$var wire 16 ~" psum_out [15:0] $end
$var wire 1 E rst_n $end
$var wire 1 [ sel_mux $end
$var wire 1 M set_reg $end
$var wire 8 !# top_in [7:0] $end
$var wire 16 "# sum [15:0] $end
$var reg 8 ## bottom_out [7:0] $end
$var reg 16 $# result [15:0] $end
$var reg 8 %# right_out [7:0] $end
$upscope $end
$scope module pe02 $end
$var wire 1 ' clk $end
$var wire 8 &# left_in [7:0] $end
$var wire 16 '# psum_in [15:0] $end
$var wire 16 (# psum_out [15:0] $end
$var wire 1 E rst_n $end
$var wire 1 [ sel_mux $end
$var wire 1 L set_reg $end
$var wire 8 )# top_in [7:0] $end
$var wire 16 *# sum [15:0] $end
$var reg 8 +# bottom_out [7:0] $end
$var reg 16 ,# result [15:0] $end
$var reg 8 -# right_out [7:0] $end
$upscope $end
$scope module pe03 $end
$var wire 1 ' clk $end
$var wire 8 .# left_in [7:0] $end
$var wire 16 /# psum_in [15:0] $end
$var wire 16 0# psum_out [15:0] $end
$var wire 1 E rst_n $end
$var wire 1 [ sel_mux $end
$var wire 1 K set_reg $end
$var wire 8 1# top_in [7:0] $end
$var wire 16 2# sum [15:0] $end
$var reg 8 3# bottom_out [7:0] $end
$var reg 16 4# result [15:0] $end
$var reg 8 5# right_out [7:0] $end
$upscope $end
$scope module pe10 $end
$var wire 1 ' clk $end
$var wire 8 6# left_in [7:0] $end
$var wire 16 7# psum_in [15:0] $end
$var wire 16 8# psum_out [15:0] $end
$var wire 1 E rst_n $end
$var wire 1 [ sel_mux $end
$var wire 1 Z set_reg $end
$var wire 8 9# top_in [7:0] $end
$var wire 16 :# sum [15:0] $end
$var reg 8 ;# bottom_out [7:0] $end
$var reg 16 <# result [15:0] $end
$var reg 8 =# right_out [7:0] $end
$upscope $end
$scope module pe11 $end
$var wire 1 ' clk $end
$var wire 8 ># left_in [7:0] $end
$var wire 16 ?# psum_in [15:0] $end
$var wire 16 @# psum_out [15:0] $end
$var wire 1 E rst_n $end
$var wire 1 [ sel_mux $end
$var wire 1 Y set_reg $end
$var wire 8 A# top_in [7:0] $end
$var wire 16 B# sum [15:0] $end
$var reg 8 C# bottom_out [7:0] $end
$var reg 16 D# result [15:0] $end
$var reg 8 E# right_out [7:0] $end
$upscope $end
$scope module pe12 $end
$var wire 1 ' clk $end
$var wire 8 F# left_in [7:0] $end
$var wire 16 G# psum_in [15:0] $end
$var wire 16 H# psum_out [15:0] $end
$var wire 1 E rst_n $end
$var wire 1 [ sel_mux $end
$var wire 1 X set_reg $end
$var wire 8 I# top_in [7:0] $end
$var wire 16 J# sum [15:0] $end
$var reg 8 K# bottom_out [7:0] $end
$var reg 16 L# result [15:0] $end
$var reg 8 M# right_out [7:0] $end
$upscope $end
$scope module pe13 $end
$var wire 1 ' clk $end
$var wire 8 N# left_in [7:0] $end
$var wire 16 O# psum_in [15:0] $end
$var wire 16 P# psum_out [15:0] $end
$var wire 1 E rst_n $end
$var wire 1 [ sel_mux $end
$var wire 1 W set_reg $end
$var wire 8 Q# top_in [7:0] $end
$var wire 16 R# sum [15:0] $end
$var reg 8 S# bottom_out [7:0] $end
$var reg 16 T# result [15:0] $end
$var reg 8 U# right_out [7:0] $end
$upscope $end
$scope module pe20 $end
$var wire 1 ' clk $end
$var wire 8 V# left_in [7:0] $end
$var wire 16 W# psum_in [15:0] $end
$var wire 16 X# psum_out [15:0] $end
$var wire 1 E rst_n $end
$var wire 1 [ sel_mux $end
$var wire 1 V set_reg $end
$var wire 8 Y# top_in [7:0] $end
$var wire 16 Z# sum [15:0] $end
$var reg 8 [# bottom_out [7:0] $end
$var reg 16 \# result [15:0] $end
$var reg 8 ]# right_out [7:0] $end
$upscope $end
$scope module pe21 $end
$var wire 1 ' clk $end
$var wire 8 ^# left_in [7:0] $end
$var wire 16 _# psum_in [15:0] $end
$var wire 16 `# psum_out [15:0] $end
$var wire 1 E rst_n $end
$var wire 1 [ sel_mux $end
$var wire 1 U set_reg $end
$var wire 8 a# top_in [7:0] $end
$var wire 16 b# sum [15:0] $end
$var reg 8 c# bottom_out [7:0] $end
$var reg 16 d# result [15:0] $end
$var reg 8 e# right_out [7:0] $end
$upscope $end
$scope module pe22 $end
$var wire 1 ' clk $end
$var wire 8 f# left_in [7:0] $end
$var wire 16 g# psum_in [15:0] $end
$var wire 16 h# psum_out [15:0] $end
$var wire 1 E rst_n $end
$var wire 1 [ sel_mux $end
$var wire 1 T set_reg $end
$var wire 8 i# top_in [7:0] $end
$var wire 16 j# sum [15:0] $end
$var reg 8 k# bottom_out [7:0] $end
$var reg 16 l# result [15:0] $end
$var reg 8 m# right_out [7:0] $end
$upscope $end
$scope module pe23 $end
$var wire 1 ' clk $end
$var wire 8 n# left_in [7:0] $end
$var wire 16 o# psum_in [15:0] $end
$var wire 16 p# psum_out [15:0] $end
$var wire 1 E rst_n $end
$var wire 1 [ sel_mux $end
$var wire 1 S set_reg $end
$var wire 8 q# top_in [7:0] $end
$var wire 16 r# sum [15:0] $end
$var reg 8 s# bottom_out [7:0] $end
$var reg 16 t# result [15:0] $end
$var reg 8 u# right_out [7:0] $end
$upscope $end
$scope module pe30 $end
$var wire 1 ' clk $end
$var wire 8 v# left_in [7:0] $end
$var wire 16 w# psum_in [15:0] $end
$var wire 16 x# psum_out [15:0] $end
$var wire 1 E rst_n $end
$var wire 1 [ sel_mux $end
$var wire 1 R set_reg $end
$var wire 8 y# top_in [7:0] $end
$var wire 16 z# sum [15:0] $end
$var reg 8 {# bottom_out [7:0] $end
$var reg 16 |# result [15:0] $end
$var reg 8 }# right_out [7:0] $end
$upscope $end
$scope module pe31 $end
$var wire 1 ' clk $end
$var wire 8 ~# left_in [7:0] $end
$var wire 16 !$ psum_in [15:0] $end
$var wire 16 "$ psum_out [15:0] $end
$var wire 1 E rst_n $end
$var wire 1 [ sel_mux $end
$var wire 1 Q set_reg $end
$var wire 8 #$ top_in [7:0] $end
$var wire 16 $$ sum [15:0] $end
$var reg 8 %$ bottom_out [7:0] $end
$var reg 16 &$ result [15:0] $end
$var reg 8 '$ right_out [7:0] $end
$upscope $end
$scope module pe32 $end
$var wire 1 ' clk $end
$var wire 8 ($ left_in [7:0] $end
$var wire 16 )$ psum_in [15:0] $end
$var wire 16 *$ psum_out [15:0] $end
$var wire 1 E rst_n $end
$var wire 1 [ sel_mux $end
$var wire 1 P set_reg $end
$var wire 8 +$ top_in [7:0] $end
$var wire 16 ,$ sum [15:0] $end
$var reg 8 -$ bottom_out [7:0] $end
$var reg 16 .$ result [15:0] $end
$var reg 8 /$ right_out [7:0] $end
$upscope $end
$scope module pe33 $end
$var wire 1 ' clk $end
$var wire 8 0$ left_in [7:0] $end
$var wire 16 1$ psum_in [15:0] $end
$var wire 16 2$ psum_out [15:0] $end
$var wire 1 E rst_n $end
$var wire 1 [ sel_mux $end
$var wire 1 O set_reg $end
$var wire 8 3$ top_in [7:0] $end
$var wire 16 4$ sum [15:0] $end
$var reg 8 5$ bottom_out [7:0] $end
$var reg 16 6$ result [15:0] $end
$var reg 8 7$ right_out [7:0] $end
$upscope $end
$upscope $end
$scope task compare $end
$var integer 32 8$ i [31:0] $end
$upscope $end
$upscope $end
$enddefinitions $end
#0
$dumpvars
bx 8$
b0 7$
b0 6$
b0 5$
b0 4$
b0 3$
b0 2$
b0 1$
b0 0$
b0 /$
b0 .$
b0 -$
b0 ,$
b0 +$
b0 *$
b0 )$
b0 ($
b0 '$
b0 &$
b0 %$
b0 $$
b0 #$
b0 "$
b0 !$
b0 ~#
b0 }#
b0 |#
b0 {#
b0 z#
b0 y#
b0 x#
b0 w#
b0 v#
b0 u#
b0 t#
b0 s#
b0 r#
b0 q#
b0 p#
b0 o#
b0 n#
b0 m#
b0 l#
b0 k#
b0 j#
b0 i#
b0 h#
b0 g#
b0 f#
b0 e#
b0 d#
b0 c#
b0 b#
b0 a#
b0 `#
b0 _#
b0 ^#
b0 ]#
b0 \#
b0 [#
b0 Z#
b0 Y#
b0 X#
b0 W#
b0 V#
b0 U#
b0 T#
b0 S#
b0 R#
b0 Q#
b0 P#
b0 O#
b0 N#
b0 M#
b0 L#
b0 K#
b0 J#
b0 I#
b0 H#
b0 G#
b0 F#
b0 E#
b0 D#
b0 C#
b0 B#
b0 A#
b0 @#
b0 ?#
b0 >#
b0 =#
b0 <#
b0 ;#
bx :#
bx 9#
b0 8#
bx 7#
b0 6#
b0 5#
b0 4#
b0 3#
b0 2#
b0 1#
b0 0#
b0 /#
b0 .#
b0 -#
b0 ,#
b0 +#
b0 *#
b0 )#
b0 (#
b0 '#
b0 &#
b0 %#
b0 $#
b0 ##
bx "#
b0 !#
b0 ~"
b0 }"
bx |"
bx {"
bx z"
bx y"
b0 x"
b0 w"
bx v"
b0 u"
b0 t"
xs"
b0 r"
bx q"
bx p"
b0 o"
b0 n"
b0 m"
b0 l"
b0 k"
b0 j"
b0 i"
b0 h"
b0 g"
b0 f"
b0 e"
b0 d"
b100 c"
bx b"
b0 a"
b0 `"
bx _"
b0 ^"
b0 ]"
bx \"
b0 ["
b0 Z"
bx Y"
b0 X"
b0 W"
bx V"
b0 U"
bx T"
bx S"
b0 R"
bx Q"
bx P"
b0 O"
bx N"
bx M"
b0 L"
bx K"
bx J"
b0 I"
bx H"
bx G"
b0 F"
bx E"
bx D"
b0 C"
bx B"
bx A"
b0 @"
bx ?"
bx >"
b0 ="
b0 <"
b0 ;"
b0 :"
b0 9"
b0 8"
b0 7"
b0 6"
b0 5"
b0 4"
b0 3"
b0 2"
b0 1"
b0 0"
b0 /"
bx ."
b0 -"
b0 ,"
b0 +"
b0 *"
b0 )"
b0 ("
b0 '"
b0 &"
b0 %"
b0 $"
b0 #"
b0 ""
b0 !"
b0 ~
b0 }
b0 |
b0 {
b0 z
b0 y
0x
0w
0v
0u
0t
0s
0r
0q
0p
b0 o
b0 n
0m
bx l
b0 k
b0 j
b0 i
b0 h
b0 g
b0 f
b0 e
b0 d
b0 c
b0 b
b0 a
b0 `
b0 _
b0 ^
b0 ]
1\
0[
xZ
xY
xX
xW
xV
xU
xT
xS
xR
xQ
xP
xO
xN
xM
xL
xK
xJ
xI
xH
b0 G
0F
0E
zD
b0 C
b0 B
b0 A
b0 @
b0 ?
b0 >
b0 =
b0 <
b0 ;
b0 :
b0 9
b0 8
b0 7
b0 6
b0 5
bx 4
bx 3
bx 2
b0 1
bx 0
bx /
bx .
x-
0,
x+
x*
x)
b0 (
0'
bx &
bx %
bx $
bx #
0"
x!
$end
#5
b0 #
b0 3
b0 K"
b0 N"
b0 Q"
b0 T"
b0 $
b0 2
b0 ?"
b0 B"
b0 E"
b0 H"
0+
b0 &
0*
b0 %
b0 :#
b0 >"
b0 y"
b0 9#
b0 "#
b0 ."
b0 {"
b0 |"
1'
#10
1E
0'
1,
#15
b0 q"
bx $
bx 2
bx ?"
bx B"
bx E"
bx H"
bx #
bx 3
bx K"
bx N"
bx Q"
bx T"
bx m"
x*
x+
b100 Y"
b100 \"
b100 _"
b100 b"
b100 A"
b100 D"
b100 G"
b100 J"
b100 M"
b100 P"
b100 S"
b100 V"
1'
#20
0'
#25
0s"
b0 m"
b100 V"
b100 S"
b100 P"
b100 M"
b100 J"
b100 G"
b100 D"
b100 A"
b100 b"
b100 _"
b100 \"
b100 Y"
1'
#30
0'
#35
b100 Y"
b100 \"
b100 _"
b100 b"
b100 A"
b100 D"
b100 G"
b100 J"
b100 M"
b100 P"
b100 S"
b100 V"
1'
#40
0'
#45
b100 V"
b100 S"
b100 P"
b100 M"
b100 J"
b100 G"
b100 D"
b100 A"
b100 b"
b100 _"
b100 \"
b100 Y"
1'
#50
b1 q"
0'
1)
#55
b1 m"
b1 e"
b1 f"
1!
b100 Y"
b100 \"
b100 _"
b100 b"
b100 A"
b100 D"
b100 G"
b100 J"
b100 M"
b100 P"
b100 S"
b100 V"
1'
#60
0'
0)
#65
b10 #
b10 3
b10 K"
b10 N"
b10 Q"
b10 T"
b1 $
b1 2
b1 ?"
b1 B"
b1 E"
b1 H"
1s
1w
b1 &
1+
b1 %
1*
b1000 n
b1000 o"
b1000 o
b1000 n"
b10 e"
b10 f"
b100 V"
b100 S"
b100 P"
b100 M"
b100 J"
b100 G"
b100 D"
b100 A"
b100 b"
b100 _"
b100 \"
b100 Y"
1'
#70
0'
#75
b11 $
b11 2
b11 ?"
b11 B"
b11 E"
b11 H"
b11 #
b11 3
b11 K"
b11 N"
b11 Q"
b11 T"
b11 e"
b11 f"
b10 %
b10 &
b100 Y"
b100 \"
b100 _"
b100 b"
b100 D"
b100 G"
b100 J"
b100 P"
b100 S"
b100 V"
1'
#80
0'
#85
b1 $
b1 2
b1 ?"
b1 B"
b1 E"
b1 H"
b11 &
b11 %
b100 e"
b100 f"
b100 V"
b100 S"
b100 P"
b100 J"
b100 G"
b100 D"
b100 b"
b100 _"
b100 \"
b100 Y"
1'
#90
0'
#95
b101 $
b101 2
b101 ?"
b101 B"
b101 E"
b101 H"
b100 #
b100 3
b100 K"
b100 N"
b100 Q"
b100 T"
b101 e"
b101 f"
b100 %
b100 &
b100 Y"
b100 \"
b100 _"
b100 b"
b100 D"
b100 G"
b100 J"
b100 P"
b100 S"
b100 V"
1'
#100
0'
#105
b1 #
b1 3
b1 K"
b1 N"
b1 Q"
b1 T"
b11 $
b11 2
b11 ?"
b11 B"
b11 E"
b11 H"
1r
0s
1v
0w
b101 &
b101 %
b100 n
b100 o"
b100 o
b100 n"
b110 e"
b110 f"
b100 V"
b100 S"
b100 P"
b100 J"
b100 G"
b100 D"
b100 b"
b100 _"
b100 \"
b100 Y"
1'
#110
0'
#115
b101 $
b101 2
b101 ?"
b101 B"
b101 E"
b101 H"
b11 #
b11 3
b11 K"
b11 N"
b11 Q"
b11 T"
b111 e"
b111 f"
b110 %
b110 &
b100 Y"
b100 \"
b100 _"
b100 b"
b100 A"
b100 G"
b100 J"
b100 M"
b100 S"
b100 V"
1'
#120
0'
#125
b1 #
b1 3
b1 K"
b1 N"
b1 Q"
b1 T"
b100 $
b100 2
b100 ?"
b100 B"
b100 E"
b100 H"
b111 &
b111 %
b1000 e"
b1000 f"
b100 V"
b100 S"
b100 M"
b100 J"
b100 G"
b100 A"
b100 b"
b100 _"
b100 \"
b100 Y"
1'
#130
0'
#135
b10 $
b10 2
b10 ?"
b10 B"
b10 E"
b10 H"
b10 #
b10 3
b10 K"
b10 N"
b10 Q"
b10 T"
b1001 e"
b1001 f"
b1000 %
b1000 &
b100 Y"
b100 \"
b100 _"
b100 b"
b100 A"
b100 G"
b100 J"
b100 M"
b100 S"
b100 V"
1'
#140
0'
#145
b100 #
b100 3
b100 K"
b100 N"
b100 Q"
b100 T"
b11 $
b11 2
b11 ?"
b11 B"
b11 E"
b11 H"
1q
0r
1u
0v
b1001 &
b1001 %
b10 n
b10 o"
b10 o
b10 n"
b1010 e"
b1010 f"
b100 V"
b100 S"
b100 M"
b100 J"
b100 G"
b100 A"
b100 b"
b100 _"
b100 \"
b100 Y"
1'
#150
0'
#155
b1 $
b1 2
b1 ?"
b1 B"
b1 E"
b1 H"
b10 #
b10 3
b10 K"
b10 N"
b10 Q"
b10 T"
b1011 e"
b1011 f"
b1010 %
b1010 &
b100 Y"
b100 \"
b100 _"
b100 b"
b100 A"
b100 D"
b100 J"
b100 M"
b100 P"
b100 V"
1'
#160
0'
#165
b100 #
b100 3
b100 K"
b100 N"
b100 Q"
b100 T"
b1011 &
b1011 %
b1100 e"
b1100 f"
b100 V"
b100 P"
b100 M"
b100 J"
b100 D"
b100 A"
b100 b"
b100 _"
b100 \"
b100 Y"
1'
#170
0'
#175
b10 $
b10 2
b10 ?"
b10 B"
b10 E"
b10 H"
b101 #
b101 3
b101 K"
b101 N"
b101 Q"
b101 T"
b1101 e"
b1101 f"
b1100 %
b1100 &
b100 Y"
b100 \"
b100 _"
b100 b"
b100 A"
b100 D"
b100 J"
b100 M"
b100 P"
b100 V"
1'
#180
0'
#185
b11 #
b11 3
b11 K"
b11 N"
b11 Q"
b11 T"
b101 $
b101 2
b101 ?"
b101 B"
b101 E"
b101 H"
1p
0q
1t
0u
b1101 &
b1101 %
b1 n
b1 o"
b1 o
b1 n"
b1110 e"
b1110 f"
b100 V"
b100 P"
b100 M"
b100 J"
b100 D"
b100 A"
b100 b"
b100 _"
b100 \"
b100 Y"
1'
#190
0'
#195
b1 $
b1 2
b1 ?"
b1 B"
b1 E"
b1 H"
b10 #
b10 3
b10 K"
b10 N"
b10 Q"
b10 T"
b1111 e"
b1111 f"
b1110 %
b1110 &
b100 Y"
b100 \"
b100 _"
b100 b"
b100 A"
b100 D"
b100 G"
b100 M"
b100 P"
b100 S"
1'
#200
0'
#205
b100 #
b100 3
b100 K"
b100 N"
b100 Q"
b100 T"
b10 $
b10 2
b10 ?"
b10 B"
b10 E"
b10 H"
b1111 &
b1111 %
b10000 e"
b10000 f"
b1 i"
b100 S"
b100 P"
b100 M"
b100 G"
b100 D"
b100 A"
b100 b"
b100 _"
b100 \"
b100 Y"
1'
#210
0'
#215
b10 q"
b1 #
b1 3
b1 K"
b1 N"
b1 Q"
b1 T"
1s"
b10001 e"
b10001 f"
0!
b10000 %
b10000 &
b100 Y"
b100 \"
b100 _"
b100 b"
b100 A"
b100 D"
b100 G"
b100 M"
b100 P"
b100 S"
1'
#220
0'
#225
b0 #
b0 3
b0 K"
b0 N"
b0 Q"
b0 T"
b0 $
b0 2
b0 ?"
b0 B"
b0 E"
b0 H"
0O
0P
0S
0Q
0T
0W
0R
0U
0X
0V
0Y
0Z
0p
1s
0t
1w
0+
0*
0H
0I
0J
0K
0L
0M
0N
b1000 n
b1000 o"
b1000 o
b1000 n"
b1 g"
b1 d"
b0 f"
b10 m"
b100 S"
b100 P"
b100 M"
b100 G"
b100 D"
b100 A"
b100 b"
b100 _"
b100 \"
b100 Y"
1'
#230
0'
#235
1r
1v
b10 x"
b1 ""
b1 @"
b1 t"
b10 |
b10 L"
b10 w"
1N
b1100 n
b1100 o"
b1100 o
b1100 n"
b10 g"
b10 d"
b100 Y"
b100 \"
b100 _"
b100 b"
b100 D"
b100 G"
b100 J"
b100 P"
b100 S"
b100 V"
1'
#240
0'
#245
1Z
1q
1u
1M
b1110 n
b1110 o"
b1110 o
b1110 n"
b11 g"
b11 d"
b1 "#
b1 {
b1 O"
b1 !#
b11 |
b11 L"
b11 w"
b110 :#
b11 !"
b11 C"
b11 6#
b1001 x"
b11 ""
b11 @"
b11 t"
b10 >"
b10 y"
b10 9#
b1 ."
b1 {"
b1 |"
b100 V"
b100 S"
b100 J"
b100 G"
b100 b"
b100 _"
b100 \"
b100 Y"
1'
#250
0'
